{
	"info": {
		"_postman_id": "a7b4ef4b-c4c8-4b2f-9aa9-6630d7bd3fde",
		"name": "Mock API",
		"schema": "https://schema.getpostman.com/json/collection/v2.1.0/collection.json",
		"_exporter_id": "22138766"
	},
	"item": [
		{
			"name": "Get 123",
			"request": {
				"method": "GET",
				"header": [],
				"url": {
					"raw": "https://postman-echo.com/get?test=123",
					"protocol": "https",
					"host": [
						"postman-echo",
						"com"
					],
					"path": [
						"get"
					],
					"query": [
						{
							"key": "test",
							"value": "123"
						}
					]
				}
			},
			"response": [
				{
					"name": "Example1",
					"originalRequest": {
						"method": "GET",
						"header": [],
						"url": {
							"raw": "https://postman-echo.com/get?test=123",
							"protocol": "https",
							"host": [
								"postman-echo",
								"com"
							],
							"path": [
								"get"
							],
							"query": [
								{
									"key": "test",
									"value": "123"
								}
							]
						}
					},
					"status": "OK",
					"code": 200,
					"_postman_previewlanguage": "json",
					"header": [
						{
							"key": "Date",
							"value": "Mon, 10 Oct 2022 06:17:58 GMT"
						},
						{
							"key": "Content-Type",
							"value": "application/json; charset=utf-8"
						},
						{
							"key": "Content-Length",
							"value": "366"
						},
						{
							"key": "Connection",
							"value": "keep-alive"
						},
						{
							"key": "ETag",
							"value": "W/\"16e-tmfa3d1iumF4E8aWWgZXSpSnhoQ\""
						},
						{
							"key": "Vary",
							"value": "Accept-Encoding"
						},
						{
							"key": "set-cookie",
							"value": "sails.sid=s%3AwK6ML97uw9ZqQoBtPgT7ClvDbHmYAe6D.EbZhXuQ12P5Q%2BfRZvDFq0Oobh3VaAU3JiOo4cgW5Cn0; Path=/; HttpOnly"
						}
					],
					"cookie": [],
					"body": "{\n    \"args\": {\n        \"test\": \"123\"\n    },\n    \"headers\": {\n        \"x-forwarded-proto\": \"https\",\n        \"x-forwarded-port\": \"443\",\n        \"host\": \"postman-echo.com\",\n        \"x-amzn-trace-id\": \"Root=1-6343b916-3fd4925577c590291feafa8b\",\n        \"user-agent\": \"PostmanRuntime/7.29.2\",\n        \"accept\": \"*/*\",\n        \"postman-token\": \"5cea007a-24f7-451a-935b-ab6293949214\",\n        \"accept-encoding\": \"gzip, deflate, br\"\n    },\n    \"url\": \"https://postman-echo.com/get?test=123\"\n}"
				}
			]
		},
		{
			"name": "Get Echo Users",
			"request": {
				"method": "GET",
				"header": []
			},
			"response": [
				{
					"name": "Example2",
					"originalRequest": {
						"method": "GET",
						"header": [],
						"url": {
							"raw": "https://postman-echo.com/getUsers",
							"protocol": "https",
							"host": [
								"postman-echo",
								"com"
							],
							"path": [
								"getUsers"
							]
						}
					},
					"status": "Not Found",
					"code": 404,
					"_postman_previewlanguage": "plain",
					"header": [
						{
							"key": "Date",
							"value": "Mon, 10 Oct 2022 06:28:43 GMT"
						},
						{
							"key": "Transfer-Encoding",
							"value": "chunked"
						},
						{
							"key": "Connection",
							"value": "keep-alive"
						},
						{
							"key": "set-cookie",
							"value": "sails.sid=s%3Ah-rq9qBXZqopxEnZyo_UK-C9NHmRR8sY.TdXNT5to4D8ztuNuRbQEAIxvUL6y2NwSxLnZcCB6h%2FE; Path=/; HttpOnly"
						}
					],
					"cookie": [],
					"body": "{\r\n    \"name\": \"{{$randomFullName}}\",\r\n    \"userName\": \"{{$randomUserName}}\",\r\n    \"email\": \"{{$randomEmail}}\",\r\n    \"updateAt\": \"{{$timestamp}}\"\r\n}"
				}
			]
		},
		{
			"name": "https://d4941b46-bf41-460c-a4e8-4e8b301dcff5.mock.pstmn.io/get",
			"request": {
				"method": "GET",
				"header": [],
				"url": {
					"raw": "https://d4941b46-bf41-460c-a4e8-4e8b301dcff5.mock.pstmn.io/get",
					"protocol": "https",
					"host": [
						"d4941b46-bf41-460c-a4e8-4e8b301dcff5",
						"mock",
						"pstmn",
						"io"
					],
					"path": [
						"get"
					]
				}
			},
			"response": []
		},
		{
			"name": "https://d4941b46-bf41-460c-a4e8-4e8b301dcff5.mock.pstmn.io/getUSers",
			"request": {
				"method": "GET",
				"header": [],
				"url": {
					"raw": "https://d4941b46-bf41-460c-a4e8-4e8b301dcff5.mock.pstmn.io/getUSers",
					"protocol": "https",
					"host": [
						"d4941b46-bf41-460c-a4e8-4e8b301dcff5",
						"mock",
						"pstmn",
						"io"
					],
					"path": [
						"getUSers"
					]
				}
			},
			"response": []
		}
	]
}